<?xml version="1.0" encoding="utf-8"?>
<!-- Generator: Adobe Illustrator 15.0.0, SVG Export Plug-In . SVG Version: 6.00 Build 0)  -->
<!DOCTYPE svg PUBLIC "-//W3C//DTD SVG 1.1//EN" "http://www.w3.org/Graphics/SVG/1.1/DTD/svg11.dtd">
<svg version="1.1" id="Layer_1" xmlns="http://www.w3.org/2000/svg" xmlns:xlink="http://www.w3.org/1999/xlink" x="0px" y="0px"
	 width="45px" height="45px" viewBox="0 0 45 45" enable-background="new 0 0 45 45" xml:space="preserve">
<g id="Layer_1_1_">
	<g>
		<path  d="M42.329,44.152H2.971c-1.296,0-2.351-1.055-2.351-2.348V6.967c0-1.294,1.055-2.348,2.351-2.348h6.39
			c0.548,0,0.992,0.445,0.992,0.992c0,0.547-0.445,0.993-0.993,0.993H2.97c-0.202,0-0.366,0.163-0.366,0.364v34.837
			c0,0.2,0.164,0.364,0.366,0.364h39.358c0.201,0,0.363-0.164,0.363-0.364V6.967c0-0.201-0.162-0.364-0.363-0.364H36.9
			c-0.547,0-0.991-0.444-0.991-0.992c0-0.548,0.444-0.991,0.991-0.991h5.429c1.293,0,2.348,1.053,2.348,2.348v34.837
			C44.677,43.098,43.622,44.152,42.329,44.152z"/>
		<path  d="M30.339,6.604H16.317c-0.549,0-0.992-0.444-0.992-0.992c0-0.548,0.443-0.992,0.992-0.992h14.021
			c0.549,0,0.992,0.445,0.992,0.992C31.33,6.159,30.887,6.604,30.339,6.604z"/>
		<path  d="M14.282,11.58h-3.313c-1.193,0-2.165-1.054-2.165-2.349V2.67c0-1.294,0.972-2.346,2.165-2.346h3.313
			c1.191,0,2.161,1.052,2.161,2.346v6.561C16.443,10.526,15.474,11.58,14.282,11.58z M10.969,2.307
			c-0.047,0-0.181,0.125-0.181,0.363v6.561c0,0.236,0.135,0.366,0.181,0.366h3.313c0.043,0,0.178-0.129,0.178-0.366V2.67
			c0-0.238-0.133-0.363-0.178-0.363H10.969z"/>
		<path  d="M34.827,11.58H31.51c-1.189,0-2.158-1.054-2.158-2.349V2.67c0-1.294,0.969-2.346,2.158-2.346h3.317
			c1.192,0,2.163,1.052,2.163,2.346v6.561C36.99,10.526,36.021,11.58,34.827,11.58z M31.51,2.307c-0.044,0-0.177,0.129-0.177,0.363
			v6.561c0,0.236,0.133,0.366,0.177,0.366h3.317c0.045,0,0.18-0.129,0.18-0.366V2.67c0-0.238-0.133-0.363-0.18-0.363H31.51z"/>
		<path  d="M42.782,20.515H1.728c-0.548,0-0.992-0.444-0.992-0.992s0.444-0.992,0.992-0.992h41.055
			c0.548,0,0.992,0.444,0.992,0.992S43.33,20.515,42.782,20.515z"/>
		<path  d="M42.782,28.318H1.728c-0.548,0-0.992-0.443-0.992-0.991c0-0.547,0.444-0.992,0.992-0.992h41.055
			c0.548,0,0.992,0.444,0.992,0.992C43.773,27.875,43.33,28.318,42.782,28.318z"/>
		<path  d="M42.782,36.576H1.728c-0.548,0-0.992-0.444-0.992-0.991c0-0.548,0.444-0.992,0.992-0.992h41.055
			c0.548,0,0.992,0.444,0.992,0.992C43.773,36.132,43.33,36.576,42.782,36.576z"/>
		<path  d="M12.286,43.504c-0.549,0-0.992-0.443-0.992-0.992V19.64c0-0.547,0.443-0.992,0.992-0.992
			c0.547,0,0.991,0.444,0.991,0.992v22.874C13.277,43.061,12.833,43.504,12.286,43.504z"/>
		<path  d="M22.462,43.504c-0.547,0-0.991-0.443-0.991-0.992V19.64c0-0.547,0.444-0.992,0.991-0.992
			c0.55,0,0.992,0.444,0.992,0.992v22.874C23.454,43.061,23.012,43.504,22.462,43.504z"/>
		<path  d="M32.979,43.504c-0.547,0-0.99-0.443-0.99-0.992V19.64c0-0.547,0.443-0.992,0.99-0.992
			s0.992,0.444,0.992,0.992v22.874C33.971,43.061,33.525,43.504,32.979,43.504z"/>
	</g>
</g>
<g id="Layer_2">
</g>
</svg>
