<?xml version="1.0" encoding="utf-8"?>
<!-- Generator: Adobe Illustrator 15.0.0, SVG Export Plug-In . SVG Version: 6.00 Build 0)  -->
<!DOCTYPE svg PUBLIC "-//W3C//DTD SVG 1.1//EN" "http://www.w3.org/Graphics/SVG/1.1/DTD/svg11.dtd">
<svg version="1.1" id="Layer_1" xmlns="http://www.w3.org/2000/svg" xmlns:xlink="http://www.w3.org/1999/xlink" x="0px" y="0px"
	 width="45px" height="45px" viewBox="0 0 45 45" enable-background="new 0 0 45 45" xml:space="preserve">
<g id="Layer_1_1_">
	<g>
		<path d="M22.494,43.982c-11.844,0-21.476-9.633-21.476-21.477c0-11.842,9.632-21.475,21.476-21.475
			c11.842,0,21.475,9.633,21.475,21.475C43.969,34.35,34.336,43.982,22.494,43.982z M22.494,5.941
			c-9.135,0-16.567,7.433-16.567,16.566c0,9.138,7.432,16.567,16.567,16.567c9.135,0,16.568-7.43,16.568-16.567
			C39.062,13.374,31.629,5.941,22.494,5.941z"/>
		<g>
			<path d="M19.716,13.355c0-0.767,0.273-1.423,0.815-1.962c0.541-0.543,1.195-0.816,1.963-0.816
				c0.764,0,1.42,0.273,1.957,0.816c0.549,0.539,0.82,1.196,0.82,1.962s-0.271,1.418-0.82,1.961
				c-0.537,0.543-1.193,0.813-1.957,0.813c-0.768,0-1.422-0.271-1.963-0.813C19.989,14.773,19.716,14.121,19.716,13.355z
				 M20.102,18.234h4.785v15.508h-4.785V18.234z"/>
		</g>
	</g>
</g>
<g id="Layer_2">
</g>
</svg>
